﻿<?xml version='1.0' encoding='UTF-8'?>
<svg x="0px" y="0px" viewBox="0 0 32 32" version="1.1" xmlns="http://www.w3.org/2000/svg" xmlns:xlink="http://www.w3.org/1999/xlink" xml:space="preserve" id="Fill_Down" style="enable-background:new 0 0 32 32">
  <style type="text/css">
	.Blue{fill:#1177D7;}
	.Black{fill:#727272;}
	.st0{opacity:0.5;}
</style>
  <g class="st0">
    <path d="M28,10v20H2V10h10v6H7.3L15,27.6L22.7,16H18v-6H28z" class="Black" />
  </g>
  <path d="M28,8H2V2h26V8z M14,10v8h-3l4,6l4-6h-3v-8H14z" class="Blue" />
</svg>