﻿<?xml version='1.0' encoding='UTF-8'?>
<svg x="0px" y="0px" viewBox="0 0 32 32" version="1.1" xmlns="http://www.w3.org/2000/svg" xmlns:xlink="http://www.w3.org/1999/xlink" xml:space="preserve" id="Layer_1" style="enable-background:new 0 0 32 32">
  <style type="text/css">
	.Green{fill:#039C23;}
	.Black{fill:#727272;}
	.Red{fill:#D11C1C;}
	.Yellow{fill:#FFB115;}
	.Blue{fill:#1177D7;}
	.White{fill:#FFFFFF;}
	.st0{opacity:0.5;}
	.st1{opacity:0.75;}
</style>
  <g id="ResetLayoutOptions">
    <path d="M16,4c-3.3,0-6.3,1.3-8.5,3.5L4,4v10h0.2h4.1H14l-3.6-3.6C11.8,8.9,13.8,8,16,8c4.4,0,8,3.6,8,8s-3.6,8-8,8   c-3.7,0-6.8-2.6-7.7-6H4.2c1,5.7,5.9,10,11.8,10c6.6,0,12-5.4,12-12S22.6,4,16,4z" class="Green" />
  </g>
</svg>