﻿<?xml version='1.0' encoding='UTF-8'?>
<svg x="0px" y="0px" viewBox="0 0 32 32" version="1.1" xmlns="http://www.w3.org/2000/svg" xmlns:xlink="http://www.w3.org/1999/xlink" xml:space="preserve" id="Layer_1" style="enable-background:new 0 0 32 32">
  <style type="text/css">
	.Yellow{fill:#FFB115;}
	.Red{fill:#D11C1C;}
	.Black{fill:#727272;}
	.Green{fill:#039C23;}
	.Blue{fill:#1177D7;}
</style>
  <g id="Barcode_1_">
    <rect x="2" y="6" width="4" height="20" rx="0" ry="0" class="Black" />
    <rect x="8" y="6" width="2" height="20" rx="0" ry="0" class="Black" />
    <rect x="18" y="6" width="2" height="20" rx="0" ry="0" class="Black" />
    <rect x="26" y="6" width="4" height="20" rx="0" ry="0" class="Black" />
    <rect x="22" y="6" width="2" height="20" rx="0" ry="0" class="Black" />
    <rect x="12" y="6" width="4" height="20" rx="0" ry="0" class="Black" />
  </g>
</svg>